<?xml version="1.0" encoding="UTF-8"?>
<svg width="16px" height="16px" viewBox="0 0 16 16" xmlns="http://www.w3.org/2000/svg">
 <path d="m7 1.0078c-0.29688-0.003906-0.57812 0.125-0.76953 0.35156l-3.2305 3.6406h-1c-1.0938 0-2 0.84375-2 2v2c0 1.0898 0.91016 2 2 2h1l3.2305 3.6406c0.21094 0.25391 0.49219 0.36328 0.76953 0.35938zm6.4609 0.96094c-0.19141-0.003906-0.38672 0.054688-0.55859 0.16797-0.45703 0.3125-0.57812 0.93359-0.26953 1.3906 1.8242 2.707 1.8242 6.2383 0 8.9453-0.30859 0.45703-0.1875 1.0781 0.26953 1.3906 0.45703 0.30859 1.0781 0.1875 1.3906-0.26953 1.1367-1.6914 1.707-3.6406 1.707-5.5938s-0.57031-3.9023-1.707-5.5938c-0.19531-0.28516-0.51172-0.4375-0.83203-0.4375zm-3.4219 2.0195c-0.22266-0.007812-0.45312 0.058594-0.64453 0.20312-0.26172 0.19922-0.39453 0.5-0.39453 0.80469v0.058594c0.011719 0.19141 0.074219 0.375 0.19922 0.53516 1.0742 1.4297 1.0742 3.3906 0 4.8164-0.125 0.16406-0.1875 0.34766-0.19922 0.53516v0.0625c0 0.30469 0.13281 0.60547 0.39453 0.80469 0.44141 0.33203 1.0664 0.24219 1.3984-0.19922 0.80469-1.0664 1.207-2.3359 1.207-3.6094s-0.40234-2.543-1.207-3.6133c-0.18359-0.24609-0.46484-0.38281-0.75391-0.39844z" fill="#fefefe"/>
</svg>
